3/20/2023 9:35:08 AM:
Fetch Transactions - Plain Request to Transcorp Encrypted data  :"nxtign9994185541?fromDate=2023-03-01&toDate=2023-03-20&pageNumber =0&pageSize=5"
3/20/2023 9:35:12 AM:
Fetch Transactions - Response From Transcorp  :{"result":[{"transaction":{"amount":"100.0","balance":100.00,"transactionType":"M2C","type":"CREDIT","time":1678691351000,"txRef":515124652,"businessId":null,"beneficiaryName":"Sriram KS","beneficiaryType":null,"beneficiaryId":"TCNXTIGN_MER","description":"LOAD","otherPartyName":"Sriram KS","otherPartyId":"TCNXTIGN_MER","txnOrigin":"MOBILE","transactionStatus":"PAYMENT_SUCCESS","status":null,"yourWallet":"GENERAL","beneficiaryWallet":"","externalTransactionId":"1303202300001","retrivalReferenceNo":null,"authCode":null,"billRefNo":null,"bankTid":"770782930","acquirerId":null,"mcc":null,"convertedAmount":100.0,"networkType":null,"limitCurrencyCode":null,"kitNo":"100000001220","sorTxnId":null,"transactionCurrencyCode":null,"fxConvDetails":null,"convDetails":null,"disputedDto":null,"disputeRef":null,"accountNo":null},"balance":null},{"transaction":{"amount":"300.0","balance":400.00,"transactionType":"M2C","type":"CREDIT","time":1678695222000,"txRef":798300834,"businessId":null,"beneficiaryName":"Sriram KS","beneficiaryType":null,"beneficiaryId":"TCNXTIGN_MER","description":"testing","otherPartyName":"Sriram KS","otherPartyId":"TCNXTIGN_MER","txnOrigin":"MOBILE","transactionStatus":"PAYMENT_SUCCESS","status":null,"yourWallet":"GENERAL","beneficiaryWallet":"","externalTransactionId":"ACCU675747397438","retrivalReferenceNo":null,"authCode":null,"billRefNo":null,"bankTid":"907353506","acquirerId":null,"mcc":null,"convertedAmount":300.0,"networkType":null,"limitCurrencyCode":null,"kitNo":"100000001220","sorTxnId":null,"transactionCurrencyCode":null,"fxConvDetails":null,"convDetails":null,"disputedDto":null,"disputeRef":null,"accountNo":null},"balance":null},{"transaction":{"amount":"300.0","balance":700.00,"transactionType":"M2C","type":"CREDIT","time":1678697453000,"txRef":583095541,"businessId":null,"beneficiaryName":"Sriram KS","beneficiaryType":null,"beneficiaryId":"TCNXTIGN_MER","description":"LOAD","otherPartyName":"Sriram KS","otherPartyId":"TCNXTIGN_MER","txnOrigin":"MOBILE","transactionStatus":"PAYMENT_SUCCESS","status":null,"yourWallet":"GENERAL","beneficiaryWallet":"","externalTransactionId":"ACCU314284420575","retrivalReferenceNo":null,"authCode":null,"billRefNo":null,"bankTid":"606651239","acquirerId":null,"mcc":null,"convertedAmount":300.0,"networkType":null,"limitCurrencyCode":null,"kitNo":"100000001220","sorTxnId":null,"transactionCurrencyCode":null,"fxConvDetails":null,"convDetails":null,"disputedDto":null,"disputeRef":null,"accountNo":null},"balance":null},{"transaction":{"amount":"30.0","balance":730.00,"transactionType":"M2C","type":"CREDIT","time":1678800914000,"txRef":920849812,"businessId":null,"beneficiaryName":"Sriram KS","beneficiaryType":null,"beneficiaryId":"TCNXTIGN_MER","description":"LOAD","otherPartyName":"Sriram KS","otherPartyId":"TCNXTIGN_MER","txnOrigin":"MOBILE","transactionStatus":"PAYMENT_SUCCESS","status":null,"yourWallet":"GENERAL","beneficiaryWallet":"","externalTransactionId":"ACCU531711125168","retrivalReferenceNo":null,"authCode":null,"billRefNo":null,"bankTid":"635163984","acquirerId":null,"mcc":null,"convertedAmount":30.0,"networkType":null,"limitCurrencyCode":null,"kitNo":"100000001220","sorTxnId":null,"transactionCurrencyCode":null,"fxConvDetails":null,"convDetails":null,"disputedDto":null,"disputeRef":null,"accountNo":null},"balance":null},{"transaction":{"amount":"100.0","balance":630.00,"transactionType":"C2M","type":"DEBIT","time":1678957893000,"txRef":532723627,"businessId":null,"beneficiaryName":"Sriram","beneficiaryType":null,"beneficiaryId":null,"description":"Change","otherPartyName":"Sriram","otherPartyId":null,"txnOrigin":"MOBILE","transactionStatus":"PAYMENT_SUCCESS","status":null,"yourWallet":"GENERAL","beneficiaryWallet":"","externalTransactionId":"1221346232347806868","retrivalReferenceNo":null,"authCode":null,"billRefNo":null,"bankTid":"872464068","acquirerId":null,"mcc":null,"convertedAmount":100.0,"networkType":null,"limitCurrencyCode":null,"kitNo":"100000001220","sorTxnId":"160323144132662181008576","transactionCurrencyCode":null,"fxConvDetails":null,"convDetails":null,"disputedDto":null,"disputeRef":null,"accountNo":null},"balance":null}],"exception":null,"pagination":{"isList":true,"pageSize":5,"pageNo":0,"totalPages":3,"totalElements":15}}
